<?xml version="1.0" encoding="UTF-8" standalone="no"?>
<svg width="15px" height="13px" viewBox="0 0 15 13" version="1.1" xmlns="http://www.w3.org/2000/svg" xmlns:xlink="http://www.w3.org/1999/xlink" xmlns:sketch="http://www.bohemiancoding.com/sketch/ns">
    <!-- Generator: Sketch 3.5.2 (25235) - http://www.bohemiancoding.com/sketch -->
    <title>Oval 1</title>
    <desc>Created with Sketch.</desc>
    <defs></defs>
    <g id="Page-1" stroke="none" stroke-width="1" fill="none" fill-rule="evenodd" sketch:type="MSPage">
        <g id="Artboard-1" sketch:type="MSArtboardGroup" transform="translate(-267.000000, -117.000000)" fill="#EC4E8B">
            <path d="M280.28182,124.420883 L274.702703,130 L268.741205,124.411096 C267.688809,123.678785 267,122.460373 267,121.081081 C267,118.842089 268.815062,117.027027 271.054054,117.027027 C272.560748,117.027027 273.87547,117.84896 274.574297,119.068905 C275.274845,117.909921 276.546942,117.135135 278,117.135135 C280.209139,117.135135 282,118.925996 282,121.135135 C282,122.49612 281.320292,123.698351 280.28182,124.420883 Z" id="Oval-1" sketch:type="MSShapeGroup"></path>
        </g>
    </g>
</svg>